{
    "key": "group_5bbc8d4f7410c",
    "title": "News Settings",
    "fields": [
        {
            "key": "field_5bc058a2feab6",
            "label": "Excerpt",
            "name": "excerpt",
            "type": "textarea",
            "instructions": "Enter the excerpt for this news article here.",
            "required": 1,
            "conditional_logic": 0,
            "wrapper": {
                "width": "",
                "class": "",
                "id": ""
            },
            "default_value": "",
            "placeholder": "",
            "maxlength": "",
            "rows": "",
            "new_lines": "br"
        },
        {
            "key": "field_5bbc8d553d3c7",
            "label": "Link",
            "name": "link",
            "type": "url",
            "instructions": "Enter the external URL for this article. Please be sure to include http(s):\/\/",
            "required": 1,
            "conditional_logic": 0,
            "wrapper": {
                "width": "",
                "class": "",
                "id": ""
            },
            "default_value": "",
            "placeholder": ""
        }
    ],
    "location": [
        [
            {
                "param": "post_type",
                "operator": "==",
                "value": "crb_news"
            }
        ]
    ],
    "menu_order": 0,
    "position": "normal",
    "style": "default",
    "label_placement": "top",
    "instruction_placement": "label",
    "hide_on_screen": "",
    "active": 1,
    "description": "",
    "modified": 1540469836
}